{
    "version":  "0.24.0",
    "url":  "https://github.com/CycloneDX/cyclonedx-cli/releases/download/v0.24.0/cyclonedx-win-x64.exe",
    "homepage":  "https://github.com/CycloneDX/cyclonedx-cli",
    "hash":  "5e4725ac45be612911088260cef399f256e35a16371663d98e1760cccfd84443",
    "bin":  [
		"cyclonedx-win-x64.exe",
		[ "cyclonedx-win-x64.exe", "cyclonedx", "" ]
	]
}
