{

    "homepage": "https://www.h2database.com/",
    "description": "A JAVA SQL database.",
    "version": "2.1.214",
    "url": "https://github.com/h2database/h2database/releases/download/version-2.1.214/h2-2022-06-13.zip",
    "hash": "34c5ffe2d27ceeff217e5b71aefe964fb3fb6c0e6891551bec4e599df5e78c9b",
	"depends": [
		"java/openjdk11"
	],
	"pre_install": [
		"Add-Content -Path \"$dir\\h2.bat\" -Value \"@start $(appdir openjdk11)\\current\\bin\\javaw.exe -cp %~dp0h2\\bin\\h2-2.1.214.jar org.h2.tools.Console %*\""
	],
	"bin": [
		"h2.bat"
	]
}