{
    "homepage": "https://bitbucket.org/shayvank/toolbox/src/master/WindowsPowerShell/",
    "description": "My PowerShell scripts I like",
    "version": "0.0.1",
    "url": "https://bitbucket.org/shayvank/toolbox/raw/HEAD/archive/toolbox-powershell-0.0.1.zip",
    "hash": "779581f6a651ee8a437f6de5cfd3821cb446d18b5dd29a4d39bb3d5bf6c0244b",
    "post_install": [
        "$scriptlocation = \"$(appdir my-powershell-scripts)\\current\"",
        "$psprofiledir = \"$Home\\Documents\\WindowsPowerShell\"",
        "$aliasfile = \"$psprofiledir\\alias.csv\"",
        "set-alias -Name touch -Value $scriptlocation\\touch.ps1 -Force",
        "set-alias -Name aduser -Value $scriptlocation\\Get-ADUser-Info.ps1 -Force",
        "set-alias -Name adgroup -Value $scriptlocation\\Get-ADGroup-Members.ps1 -Force",
        "set-alias -Name adusergroups -Value $scriptlocation\\Get-ADUser-Groups.ps1 -Force",
        "export-alias -path $aliasfile -Name \"touch\",\"aduser\",\"adgroup\",\"adusergroups\"",
        "Write-Host \"Be sure to add 'Import-Alias -Path $aliasfile -Force' to your PowerShell profile.\""
	]
}