{
    "description": "Run as Invoker helper.",
    "version": "5-09-2020",
    "url": "https://bitbucket.org/shayvank/my-scoop/raw/master/scripts/RunAsInvoker.cmd",
	"hash": "f3c83ca13691dcce6b3c3d5542c40bcc208bd8b32e57b0981aeb6770ea9d3db2",
	"post_install": [
		"$runasinvokerscript = \"$(appdir runasinvoker)\\current\\RunAsInvoker.cmd\"",
		"$iconPath = \"$(Join-Path -path (get-item env:\\windir).value -ChildPath system32)\\shell32.dll\"",
		"$WshShell = New-Object -comObject WScript.Shell",
		"$strSendTo = $WshShell.SpecialFolders(\"SendTo\")",
        "$Shortcut = $WshShell.CreateShortcut(\"$strSendTo\\RunAsInvoker.lnk\")",
		"$Shortcut.IconLocation = \"$iconPath,261\"",
		"$Shortcut.TargetPath = \"$runasinvokerscript\"",
		"$Shortcut.Save()"
	],
	"uninstaller": {
		"script": [
			"$WshShell = New-Object -comObject WScript.Shell",
			"$strSendTo = $WshShell.SpecialFolders(\"SendTo\")",
			"rm \"$strSendTo\\RunAsInvoker.lnk\""
		]
	}
}